PF4_New/out.txt
Program load 60 instructions.
PC:          0 | Instruction Type: N O P
------------------------------------------------------------------------------------------------------------------------------------------------------
IF/ID
Instruction           00000000000000000000000000000000
Register File:    RA: xxxx | RB: xxxx | RD: xxxx | RW: 0000 | PA: xxxxxxxxxxxxxxxxxxxxxxxxxxxxxxxx | PB: xxxxxxxxxxxxxxxxxxxxxxxxxxxxxxxx | PD xxxxxxxxxxxxxxxxxxxxxxxxxxxxxxxx
=====================================================================================================================================================================
ALU
A: 00000000000000000000000000000000 | B: 00000000000000000000000000000000 | alu_op: 0000 | C_IN: x | result: 00000000000000000000000000000000 | Z: 1 | N: 0 | C: 0 | V: 0
PC states:        PC:          0 |nPC:          4  | Fetch:          4
Control Unit:     ALU_OP: 0000 | ID_LOAD: 0 | ID_MEM_WRITE: 0 | S_bit: 0 | ID_BL: 0 | ID_B: 0 | ID_MEM_SIZE: 0 | ID_enable instr: 0 | RF_E: 0 | ID_AM: 00 | sop_count: xx
Control Unit Mux: ALU_OP: 0000 | ID_LOAD: 0 | ID_MEM_WRITE: 0 | S_bit: 0 | ID_BL: 0 | ID_B: 0 | ID_MEM_SIZE: 0 | ID_MEM_E: 0 | RF_E: 0 | ID_AM: 00
------------------------------------------------------------------------------------------------------------------------------------------------------
ID/EX
ALU_OP: 0000 | ID_LOAD: 0 | ID_MEM_WRITE: 0 | ID_MEM_SIZE: 0 | ID_MEM_E: 0 | ID_AM: 00 | S_bit: 0 | RF_E: 0 | BL_Out: 0 | Next PC: 00000000000000000000000000000000 | MUX_PA: 00000000000000000000000000000000 | MUX_PB: 00000000000000000000000000000000 | MUX_PD: 00000000000000000000000000000000 | MUX_15-12: 0000 | INSTR_11-0: 000000000000
------------------------------------------------------------------------------------------------------------------------------------------------------
EX/MEM
id_load: 0 | id_mem_size: 0 | id_mem_write: 0 | id_mem_enable: 0 | rf_enable: 0 | mux_pa: 00000000000000000000000000000000 | mux_pd: 00000000000000000000000000000000 | dm_address: 00000000000000000000000000000000 | mux_instr_i15_i12:  0000
------------------------------------------------------------------------------------------------------------------------------------------------------
MEM/WB
RF_ENABLE: 0 | ID_LOAD: 0 | MUX_DATAMEMORY: 00000000000000000000000000000000 | MUX_INSTR_I15_I12: 0000 | rf_enable: 0 | mux_instr_i15_i12: 0000 | mux_datamemory: 00000000000000000000000000000000
 
Time: 2 | PC:          0 | r1:          0 | r2:          0 | r3:          0 | r5:          0 | r6:          0
PC:          0 | Instruction Type: N O P
------------------------------------------------------------------------------------------------------------------------------------------------------
IF/ID
Instruction           00000000000000000000000000000000
Register File:    RA: 0100 | RB: 0000 | RD: 0101 | RW: 0000 | PA: 00000000000000000000000000000000 | PB: 00000000000000000000000000000000 | PD 00000000000000000000000000000000
=====================================================================================================================================================================
ALU
A: 00000000000000000000000000000000 | B: 00000000000000000000000000000000 | alu_op: 0000 | C_IN: 0 | result: 00000000000000000000000000000000 | Z: 1 | N: 0 | C: 0 | V: 0
PC states:        PC:          0 |nPC:          4  | Fetch:          4
Control Unit:     ALU_OP: 0000 | ID_LOAD: 0 | ID_MEM_WRITE: 0 | S_bit: 0 | ID_BL: 0 | ID_B: 0 | ID_MEM_SIZE: 0 | ID_enable instr: 0 | RF_E: 0 | ID_AM: 00 | sop_count: xx
Control Unit Mux: ALU_OP: 0000 | ID_LOAD: 0 | ID_MEM_WRITE: 0 | S_bit: 0 | ID_BL: 0 | ID_B: 0 | ID_MEM_SIZE: 0 | ID_MEM_E: 0 | RF_E: 0 | ID_AM: 00
------------------------------------------------------------------------------------------------------------------------------------------------------
ID/EX
ALU_OP: 0000 | ID_LOAD: 0 | ID_MEM_WRITE: 0 | ID_MEM_SIZE: 0 | ID_MEM_E: 0 | ID_AM: 00 | S_bit: 0 | RF_E: 0 | BL_Out: 0 | Next PC: 00000000000000000000000000000000 | MUX_PA: 00000000000000000000000000000000 | MUX_PB: 00000000000000000000000000000000 | MUX_PD: 00000000000000000000000000000000 | MUX_15-12: 0000 | INSTR_11-0: 000000000000
------------------------------------------------------------------------------------------------------------------------------------------------------
EX/MEM
id_load: 0 | id_mem_size: 0 | id_mem_write: 0 | id_mem_enable: 0 | rf_enable: 0 | mux_pa: 00000000000000000000000000000000 | mux_pd: 00000000000000000000000000000000 | dm_address: 00000000000000000000000000000000 | mux_instr_i15_i12:  0000
------------------------------------------------------------------------------------------------------------------------------------------------------
MEM/WB
RF_ENABLE: 0 | ID_LOAD: 0 | MUX_DATAMEMORY: 00000000000000000000000000000000 | MUX_INSTR_I15_I12: 0000 | rf_enable: 0 | mux_instr_i15_i12: 0000 | mux_datamemory: 00000000000000000000000000000000
 
Time: 4 | PC:          4 | r1:          0 | r2:          0 | r3:          0 | r5:          0 | r6:          0
PC:          4 | Instruction Type: M O V
------------------------------------------------------------------------------------------------------------------------------------------------------
IF/ID
Instruction           11100011101000000101000000110100
Register File:    RA: 0100 | RB: 0000 | RD: 0101 | RW: 0000 | PA: 00000000000000000000000000000000 | PB: 00000000000000000000000000000000 | PD 00000000000000000000000000000000
=====================================================================================================================================================================
ALU
A: 00000000000000000000000000000000 | B: 00000000000000000000000000110100 | alu_op: 0000 | C_IN: 0 | result: 00000000000000000000000000110100 | Z: 0 | N: 0 | C: 0 | V: 0
PC states:        PC:          4 |nPC:          8  | Fetch:          8
Control Unit:     ALU_OP: 1010 | ID_LOAD: 0 | ID_MEM_WRITE: 0 | S_bit: 0 | ID_BL: 0 | ID_B: 0 | ID_MEM_SIZE: 0 | ID_enable instr: 0 | RF_E: 1 | ID_AM: 00 | sop_count: 01
Control Unit Mux: ALU_OP: 1010 | ID_LOAD: 0 | ID_MEM_WRITE: 0 | S_bit: 0 | ID_BL: 0 | ID_B: 0 | ID_MEM_SIZE: 0 | ID_MEM_E: 0 | RF_E: 1 | ID_AM: 00
------------------------------------------------------------------------------------------------------------------------------------------------------
ID/EX
ALU_OP: 0000 | ID_LOAD: 0 | ID_MEM_WRITE: 0 | ID_MEM_SIZE: 0 | ID_MEM_E: 0 | ID_AM: 00 | S_bit: 0 | RF_E: 0 | BL_Out: 0 | Next PC: 00000000000000000000000000000000 | MUX_PA: 00000000000000000000000000000000 | MUX_PB: 00000000000000000000000000000000 | MUX_PD: 00000000000000000000000000000000 | MUX_15-12: 0101 | INSTR_11-0: 000000110100
------------------------------------------------------------------------------------------------------------------------------------------------------
EX/MEM
id_load: 0 | id_mem_size: 0 | id_mem_write: 0 | id_mem_enable: 0 | rf_enable: 0 | mux_pa: 00000000000000000000000000000000 | mux_pd: 00000000000000000000000000000000 | dm_address: 00000000000000000000000000000000 | mux_instr_i15_i12:  0000
------------------------------------------------------------------------------------------------------------------------------------------------------
MEM/WB
RF_ENABLE: 0 | ID_LOAD: 0 | MUX_DATAMEMORY: 00000000000000000000000000000000 | MUX_INSTR_I15_I12: 0000 | rf_enable: 0 | mux_instr_i15_i12: 0000 | mux_datamemory: 00000000000000000000000000000000
 
Time: 6 | PC:          8 | r1:          0 | r2:          0 | r3:          0 | r5:          0 | r6:          0
PC:          8 | Instruction Type: L D R
------------------------------------------------------------------------------------------------------------------------------------------------------
IF/ID
Instruction           11100101100101010001000000000000
Register File:    RA: 0000 | RB: 0101 | RD: 0001 | RW: 0000 | PA: 00000000000000000000000000000000 | PB: 00000000000000000000000000000000 | PD 00000000000000000000000000000000
=====================================================================================================================================================================
ALU
A: 00000000000000000000000000000000 | B: 00000000000000000000000000110100 | alu_op: 1010 | C_IN: 0 | result: 00000000000000000000000000110100 | Z: 0 | N: 0 | C: 0 | V: 0
PC states:        PC:          8 |nPC:         12  | Fetch:         12
Control Unit:     ALU_OP: 0000 | ID_LOAD: 1 | ID_MEM_WRITE: 0 | S_bit: 0 | ID_BL: 0 | ID_B: 0 | ID_MEM_SIZE: 1 | ID_enable instr: 1 | RF_E: 1 | ID_AM: 10 | sop_count: 01
Control Unit Mux: ALU_OP: 0000 | ID_LOAD: 1 | ID_MEM_WRITE: 0 | S_bit: 0 | ID_BL: 0 | ID_B: 0 | ID_MEM_SIZE: 1 | ID_MEM_E: 1 | RF_E: 1 | ID_AM: 10
------------------------------------------------------------------------------------------------------------------------------------------------------
ID/EX
ALU_OP: 1010 | ID_LOAD: 0 | ID_MEM_WRITE: 0 | ID_MEM_SIZE: 0 | ID_MEM_E: 0 | ID_AM: 00 | S_bit: 0 | RF_E: 1 | BL_Out: 0 | Next PC: 00000000000000000000000000000000 | MUX_PA: 00000000000000000000000000000000 | MUX_PB: 00000000000000000000000000000000 | MUX_PD: 00000000000000000000000000000000 | MUX_15-12: 0101 | INSTR_11-0: 000000110100
------------------------------------------------------------------------------------------------------------------------------------------------------
EX/MEM
id_load: 0 | id_mem_size: 0 | id_mem_write: 0 | id_mem_enable: 0 | rf_enable: 0 | mux_pa: 00000000000000000000000000000000 | mux_pd: 00000000000000000000000000000000 | dm_address: 00000000000000000000000000110100 | mux_instr_i15_i12:  0101
------------------------------------------------------------------------------------------------------------------------------------------------------
MEM/WB
RF_ENABLE: 0 | ID_LOAD: 0 | MUX_DATAMEMORY: 00000000000000000000000000110100 | MUX_INSTR_I15_I12: 0101 | rf_enable: 0 | mux_instr_i15_i12: 0000 | mux_datamemory: 00000000000000000000000000000000
 
Time: 8 | PC:         12 | r1:          0 | r2:          0 | r3:          0 | r5:          0 | r6:          0
PC:         12 | Instruction Type: L D R
------------------------------------------------------------------------------------------------------------------------------------------------------
IF/ID
Instruction           11100101110101010010000000000100
Register File:    RA: 0100 | RB: 0101 | RD: 0010 | RW: 0101 | PA: 00000000000000000000000000000000 | PB: 00000000000000000000000000000000 | PD 00000000000000000000000000000000
=====================================================================================================================================================================
ALU
A: 00000000000000000000000000000000 | B: 00000000000000000000000000000000 | alu_op: 0000 | C_IN: 0 | result: 00000000000000000000000000000000 | Z: 1 | N: 0 | C: 0 | V: 0
PC states:        PC:         12 |nPC:         16  | Fetch:         16
Control Unit:     ALU_OP: 0000 | ID_LOAD: 1 | ID_MEM_WRITE: 0 | S_bit: 0 | ID_BL: 0 | ID_B: 0 | ID_MEM_SIZE: 0 | ID_enable instr: 1 | RF_E: 1 | ID_AM: 10 | sop_count: 01
Control Unit Mux: ALU_OP: 0000 | ID_LOAD: 1 | ID_MEM_WRITE: 0 | S_bit: 0 | ID_BL: 0 | ID_B: 0 | ID_MEM_SIZE: 0 | ID_MEM_E: 1 | RF_E: 1 | ID_AM: 10
------------------------------------------------------------------------------------------------------------------------------------------------------
ID/EX
ALU_OP: 0000 | ID_LOAD: 1 | ID_MEM_WRITE: 0 | ID_MEM_SIZE: 1 | ID_MEM_E: 1 | ID_AM: 10 | S_bit: 0 | RF_E: 1 | BL_Out: 0 | Next PC: 00000000000000000000000000000100 | MUX_PA: 00000000000000000000000000000000 | MUX_PB: 00000000000000000000000000000000 | MUX_PD: 00000000000000000000000000000000 | MUX_15-12: 0001 | INSTR_11-0: 000000000000
------------------------------------------------------------------------------------------------------------------------------------------------------
EX/MEM
id_load: 0 | id_mem_size: 0 | id_mem_write: 0 | id_mem_enable: 0 | rf_enable: 1 | mux_pa: 00000000000000000000000000000000 | mux_pd: 00000000000000000000000000000000 | dm_address: 00000000000000000000000000110100 | mux_instr_i15_i12:  0101
------------------------------------------------------------------------------------------------------------------------------------------------------
MEM/WB
RF_ENABLE: 1 | ID_LOAD: 0 | MUX_DATAMEMORY: 00000000000000000000000000110100 | MUX_INSTR_I15_I12: 0101 | rf_enable: 0 | mux_instr_i15_i12: 0101 | mux_datamemory: 00000000000000000000000000110100
 
Time: 10 | PC:         16 | r1:          0 | r2:          0 | r3:          0 | r5:          0 | r6:          0
PC:         16 | Instruction Type: L D R
------------------------------------------------------------------------------------------------------------------------------------------------------
IF/ID
Instruction           11100101110101010011000000000101
Register File:    RA: 0101 | RB: 0101 | RD: 0011 | RW: 0101 | PA: 00000000000000000000000000000000 | PB: 00000000000000000000000000000000 | PD 00000000000000000000000000000000
=====================================================================================================================================================================
ALU
A: 00000000000000000000000000000000 | B: 00000000000000000000000000000100 | alu_op: 0000 | C_IN: 0 | result: 00000000000000000000000000000100 | Z: 0 | N: 0 | C: 0 | V: 0
PC states:        PC:         16 |nPC:         20  | Fetch:         20
Control Unit:     ALU_OP: 0000 | ID_LOAD: 1 | ID_MEM_WRITE: 0 | S_bit: 0 | ID_BL: 0 | ID_B: 0 | ID_MEM_SIZE: 0 | ID_enable instr: 1 | RF_E: 1 | ID_AM: 10 | sop_count: 01
Control Unit Mux: ALU_OP: 0000 | ID_LOAD: 1 | ID_MEM_WRITE: 0 | S_bit: 0 | ID_BL: 0 | ID_B: 0 | ID_MEM_SIZE: 0 | ID_MEM_E: 1 | RF_E: 1 | ID_AM: 10
------------------------------------------------------------------------------------------------------------------------------------------------------
ID/EX
ALU_OP: 0000 | ID_LOAD: 1 | ID_MEM_WRITE: 0 | ID_MEM_SIZE: 0 | ID_MEM_E: 1 | ID_AM: 10 | S_bit: 0 | RF_E: 1 | BL_Out: 0 | Next PC: 00000000000000000000000000001000 | MUX_PA: 00000000000000000000000000000000 | MUX_PB: 00000000000000000000000000000000 | MUX_PD: 00000000000000000000000000000000 | MUX_15-12: 0010 | INSTR_11-0: 000000000100
------------------------------------------------------------------------------------------------------------------------------------------------------
EX/MEM
id_load: 1 | id_mem_size: 1 | id_mem_write: 0 | id_mem_enable: 1 | rf_enable: 1 | mux_pa: 00000000000000000000000000000000 | mux_pd: 00000000000000000000000000000000 | dm_address: 00000000000000000000000000000000 | mux_instr_i15_i12:  0001
------------------------------------------------------------------------------------------------------------------------------------------------------
MEM/WB
RF_ENABLE: 1 | ID_LOAD: 0 | MUX_DATAMEMORY: 11100011101000000101000000110100 | MUX_INSTR_I15_I12: 0001 | rf_enable: 1 | mux_instr_i15_i12: 0101 | mux_datamemory: 00000000000000000000000000110100
 
Time: 12 | PC:         20 | r1:          0 | r2:          0 | r3:          0 | r5:         52 | r6:          0
PC:         20 | Instruction Type: M O V
------------------------------------------------------------------------------------------------------------------------------------------------------
IF/ID
Instruction           11100001101100001010000000000001
Register File:    RA: 0001 | RB: 0000 | RD: 1010 | RW: 0001 | PA: 00000000000000000000000000000000 | PB: 00000000000000000000000000000000 | PD 00000000000000000000000000000000
=====================================================================================================================================================================
ALU
A: 00000000000000000000000000000000 | B: 00000000000000000000000000000101 | alu_op: 0000 | C_IN: 0 | result: 00000000000000000000000000000101 | Z: 0 | N: 0 | C: 0 | V: 0
PC states:        PC:         20 |nPC:         24  | Fetch:         24
Control Unit:     ALU_OP: 1010 | ID_LOAD: 0 | ID_MEM_WRITE: 0 | S_bit: 1 | ID_BL: 0 | ID_B: 0 | ID_MEM_SIZE: 0 | ID_enable instr: 0 | RF_E: 1 | ID_AM: 11 | sop_count: 10
Control Unit Mux: ALU_OP: 1010 | ID_LOAD: 0 | ID_MEM_WRITE: 0 | S_bit: 1 | ID_BL: 0 | ID_B: 0 | ID_MEM_SIZE: 0 | ID_MEM_E: 0 | RF_E: 1 | ID_AM: 11
------------------------------------------------------------------------------------------------------------------------------------------------------
ID/EX
ALU_OP: 0000 | ID_LOAD: 1 | ID_MEM_WRITE: 0 | ID_MEM_SIZE: 0 | ID_MEM_E: 1 | ID_AM: 10 | S_bit: 0 | RF_E: 1 | BL_Out: 0 | Next PC: 00000000000000000000000000001100 | MUX_PA: 00000000000000000000000000000000 | MUX_PB: 00000000000000000000000000000000 | MUX_PD: 00000000000000000000000000000000 | MUX_15-12: 0011 | INSTR_11-0: 000000000101
------------------------------------------------------------------------------------------------------------------------------------------------------
EX/MEM
id_load: 1 | id_mem_size: 0 | id_mem_write: 0 | id_mem_enable: 1 | rf_enable: 1 | mux_pa: 00000000000000000000000000000000 | mux_pd: 00000000000000000000000000000000 | dm_address: 00000000000000000000000000000100 | mux_instr_i15_i12:  0010
------------------------------------------------------------------------------------------------------------------------------------------------------
MEM/WB
RF_ENABLE: 1 | ID_LOAD: 1 | MUX_DATAMEMORY: 00000000000000000000000011100101 | MUX_INSTR_I15_I12: 0010 | rf_enable: 1 | mux_instr_i15_i12: 0001 | mux_datamemory: 11100011101000000101000000110100
 
Time: 14 | PC:         24 | r1: 3818934324 | r2:          0 | r3:          0 | r5:         52 | r6:          0
PC:         24 | Instruction Type: B    
------------------------------------------------------------------------------------------------------------------------------------------------------
IF/ID
Instruction           01011010000000000000000000000100
Register File:    RA: 0100 | RB: 0000 | RD: 0000 | RW: 0010 | PA: 00000000000000000000000000000000 | PB: 00000000000000000000000000000000 | PD 00000000000000000000000000000000
=====================================================================================================================================================================
ALU
A: 00000000000000000000000000000000 | B: 00000000000000000000000000000000 | alu_op: 1010 | C_IN: 0 | result: 00000000000000000000000000000000 | Z: 1 | N: 0 | C: 0 | V: 0
PC states:        PC:         24 |nPC:         28  | Fetch:         36
Control Unit:     ALU_OP: 1010 | ID_LOAD: 0 | ID_MEM_WRITE: 0 | S_bit: 0 | ID_BL: 0 | ID_B: 1 | ID_MEM_SIZE: 0 | ID_enable instr: 0 | RF_E: 0 | ID_AM: 11 | sop_count: 00
Control Unit Mux: ALU_OP: 1010 | ID_LOAD: 0 | ID_MEM_WRITE: 0 | S_bit: 0 | ID_BL: 0 | ID_B: 1 | ID_MEM_SIZE: 0 | ID_MEM_E: 0 | RF_E: 0 | ID_AM: 11
------------------------------------------------------------------------------------------------------------------------------------------------------
ID/EX
ALU_OP: 1010 | ID_LOAD: 0 | ID_MEM_WRITE: 0 | ID_MEM_SIZE: 0 | ID_MEM_E: 0 | ID_AM: 11 | S_bit: 1 | RF_E: 1 | BL_Out: 0 | Next PC: 00000000000000000000000000010000 | MUX_PA: 00000000000000000000000000000000 | MUX_PB: 00000000000000000000000000000000 | MUX_PD: 00000000000000000000000000000000 | MUX_15-12: 1010 | INSTR_11-0: 000000000001
------------------------------------------------------------------------------------------------------------------------------------------------------
EX/MEM
id_load: 1 | id_mem_size: 0 | id_mem_write: 0 | id_mem_enable: 1 | rf_enable: 1 | mux_pa: 00000000000000000000000000000000 | mux_pd: 00000000000000000000000000000000 | dm_address: 00000000000000000000000000000101 | mux_instr_i15_i12:  0011
------------------------------------------------------------------------------------------------------------------------------------------------------
MEM/WB
RF_ENABLE: 1 | ID_LOAD: 1 | MUX_DATAMEMORY: 00000000000000000000000010010101 | MUX_INSTR_I15_I12: 0011 | rf_enable: 1 | mux_instr_i15_i12: 0010 | mux_datamemory: 00000000000000000000000011100101
 
Time: 16 | PC:         36 | r1: 3818934324 | r2:        229 | r3:          0 | r5:         52 | r6:          0
PC:         36 | Instruction Type: S U B
------------------------------------------------------------------------------------------------------------------------------------------------------
IF/ID
Instruction           11100000010000110110000000000010
Register File:    RA: 0010 | RB: 0011 | RD: 0110 | RW: 0011 | PA: 00000000000000000000000011100101 | PB: 00000000000000000000000000000000 | PD 00000000000000000000000000000000
=====================================================================================================================================================================
ALU
A: 00000000000000000000000000000000 | B: 00000000000000000000000000000000 | alu_op: 1010 | C_IN: 0 | result: 00000000000000000000000000000000 | Z: 1 | N: 0 | C: 0 | V: 0
PC states:        PC:         36 |nPC:         40  | Fetch:         40
Control Unit:     ALU_OP: 0010 | ID_LOAD: 0 | ID_MEM_WRITE: 0 | S_bit: 0 | ID_BL: 0 | ID_B: 0 | ID_MEM_SIZE: 0 | ID_enable instr: 0 | RF_E: 1 | ID_AM: 11 | sop_count: 10
Control Unit Mux: ALU_OP: 0010 | ID_LOAD: 0 | ID_MEM_WRITE: 0 | S_bit: 0 | ID_BL: 0 | ID_B: 0 | ID_MEM_SIZE: 0 | ID_MEM_E: 0 | RF_E: 1 | ID_AM: 11
------------------------------------------------------------------------------------------------------------------------------------------------------
ID/EX
ALU_OP: 1010 | ID_LOAD: 0 | ID_MEM_WRITE: 0 | ID_MEM_SIZE: 0 | ID_MEM_E: 0 | ID_AM: 11 | S_bit: 0 | RF_E: 0 | BL_Out: 0 | Next PC: 00000000000000000000000000010100 | MUX_PA: 00000000000000000000000000000000 | MUX_PB: 00000000000000000000000000000000 | MUX_PD: 00000000000000000000000000000000 | MUX_15-12: 0000 | INSTR_11-0: 000000000100
------------------------------------------------------------------------------------------------------------------------------------------------------
EX/MEM
id_load: 0 | id_mem_size: 0 | id_mem_write: 0 | id_mem_enable: 0 | rf_enable: 1 | mux_pa: 00000000000000000000000000000000 | mux_pd: 00000000000000000000000000000000 | dm_address: 00000000000000000000000000000000 | mux_instr_i15_i12:  1010
------------------------------------------------------------------------------------------------------------------------------------------------------
MEM/WB
RF_ENABLE: 1 | ID_LOAD: 1 | MUX_DATAMEMORY: 00000000000000000000000000000000 | MUX_INSTR_I15_I12: 1010 | rf_enable: 1 | mux_instr_i15_i12: 0011 | mux_datamemory: 00000000000000000000000010010101
 
Time: 18 | PC:         40 | r1: 3818934324 | r2:        229 | r3:        149 | r5:         52 | r6:          0
PC:         40 | Instruction Type: B    
------------------------------------------------------------------------------------------------------------------------------------------------------
IF/ID
Instruction           11101010000000000000000000000100
Register File:    RA: 0100 | RB: 0000 | RD: 0000 | RW: 1010 | PA: 00000000000000000000000000000000 | PB: 00000000000000000000000000000000 | PD 00000000000000000000000000000000
=====================================================================================================================================================================
ALU
A: 00000000000000000000000011100101 | B: 00000000000000000000000000000000 | alu_op: 0010 | C_IN: 0 | result: 00000000000000000000000011100101 | Z: 0 | N: 0 | C: 0 | V: 0
PC states:        PC:         40 |nPC:         44  | Fetch:         44
Control Unit:     ALU_OP: 0010 | ID_LOAD: 0 | ID_MEM_WRITE: 0 | S_bit: 0 | ID_BL: 0 | ID_B: 1 | ID_MEM_SIZE: 0 | ID_enable instr: 0 | RF_E: 0 | ID_AM: 11 | sop_count: 00
Control Unit Mux: ALU_OP: 0010 | ID_LOAD: 0 | ID_MEM_WRITE: 0 | S_bit: 0 | ID_BL: 0 | ID_B: 1 | ID_MEM_SIZE: 0 | ID_MEM_E: 0 | RF_E: 0 | ID_AM: 11
------------------------------------------------------------------------------------------------------------------------------------------------------
ID/EX
ALU_OP: 0010 | ID_LOAD: 0 | ID_MEM_WRITE: 0 | ID_MEM_SIZE: 0 | ID_MEM_E: 0 | ID_AM: 11 | S_bit: 0 | RF_E: 1 | BL_Out: 0 | Next PC: 00000000000000000000000000011000 | MUX_PA: 00000000000000000000000011100101 | MUX_PB: 00000000000000000000000000000000 | MUX_PD: 00000000000000000000000000000000 | MUX_15-12: 0110 | INSTR_11-0: 000000000010
------------------------------------------------------------------------------------------------------------------------------------------------------
EX/MEM
id_load: 0 | id_mem_size: 0 | id_mem_write: 0 | id_mem_enable: 0 | rf_enable: 0 | mux_pa: 00000000000000000000000000000000 | mux_pd: 00000000000000000000000000000000 | dm_address: 00000000000000000000000000000000 | mux_instr_i15_i12:  0000
------------------------------------------------------------------------------------------------------------------------------------------------------
MEM/WB
RF_ENABLE: 0 | ID_LOAD: 0 | MUX_DATAMEMORY: 00000000000000000000000000000000 | MUX_INSTR_I15_I12: 0000 | rf_enable: 1 | mux_instr_i15_i12: 1010 | mux_datamemory: 00000000000000000000000000000000
 
Infinite Loop Detected
RAM[0:3] = 11100011 10100000 01010000 00110100
RAM[4:7] = 11100101 10010101 00010000 00000000
RAM[8:11] = 11100101 11010101 00100000 00000100
RAM[12:15] = 11100101 11010101 00110000 00000101
RAM[16:19] = 11100001 10110000 10100000 00000001
RAM[20:23] = 01011010 00000000 00000000 00000100
RAM[24:27] = 11100000 01000011 01100000 00000010
RAM[28:31] = 00000000 00000000 00000000 00000000
RAM[32:35] = 00000000 00000000 00000000 00000000
RAM[36:39] = 11101010 00000000 00000000 00000100
RAM[40:43] = 11100000 10000011 01100000 00000010
RAM[44:47] = 11100101 11000101 01100000 00000110
RAM[48:51] = 11101010 11111111 11111111 11111111
RAM[52:55] = 11111100 00010011 00100000 00000000
RAM[56:59] = 00010011 00100000 00000000 00000000
RAM[60:63] = 00000000 xxxxxxxx xxxxxxxx xxxxxxxx
tb_complete.v:714: $finish called at 20000 (1ps)
Time: 20 | PC:         44 | r1: 3818934324 | r2:        229 | r3:        149 | r5:         52 | r6:          0
